CONTAINER Ovoncgelatine
{
	NAME Ovoncgelatine;
	INCLUDE Obase;

	GROUP ID_OBJECTPROPERTIES
	{
		REAL VONC_GELATINE_INTENSITE			{ UNIT PERCENT; MIN 0.0; MAX 100.0; CUSTOMGUI REALSLIDER; }
		LONG VONC_GELATINE_MODE {
			CYCLE {
				VONC_GELATINE_MODE_SRC;
				VONC_GELATINE_MODE_SEL;
				VONC_GELATINE_MODE_INF;
			}
		}
		REAL VONC_GELATINE_RAYON				{ UNIT METER; MIN 0.0; }
		REAL VONC_GELATINE_RAYON_MAX			{ UNIT METER; MIN 0.0; }
		STRING VONC_GELATINE_SELECTION			{ }
		BUTTON VONC_GELATINE_INIT				{ }
		
		SEPARATOR { LINE; }
		
		REAL VONC_GELATINE_ELASTICITE			{ UNIT PERCENT; MIN 0.0; MAXSLIDER 100.0; STEP 1.0; CUSTOMGUI REALSLIDER; }
		REAL VONC_GELATINE_AMORTIS				{ UNIT PERCENT; MINSLIDER 0.0; MAXSLIDER 100.0; STEP 1.0; CUSTOMGUI REALSLIDER; }
		REAL VONC_GELATINE_ETIRE_ANGLE			{ UNIT DEGREE; MIN 0.0; MAX 90; }
		REAL VONC_GELATINE_FORCE				{ UNIT PERCENT; MIN 0.0; MAXSLIDER 100.0; STEP 1.0; CUSTOMGUI REALSLIDER; }
		BOOL VONC_GELATINE_INVERSER				{ }
		
		SEPARATOR { LINE; }
		
		SPLINE VONC_GELATINE_ATTENUATION		{ }
		BUTTON VONC_GELATINE_ATTENUATION_INIT	{ }
		
		SEPARATOR { LINE; }
		
		GROUP {
			STATICTEXT VONC_GELATINE_INFO		{ }
		}
		
	}
	
}